<svg width="48" height="48" viewBox="0 0 48 48" fill="none" xmlns="http://www.w3.org/2000/svg">
<circle cx="24" cy="24" r="24" fill="#D4E1F7"/>
<path fill-rule="evenodd" clip-rule="evenodd" d="M15.5813 33.1665L15.2958 33.2003C15.132 33.2119 14.9675 33.1892 14.8129 33.1336C14.6583 33.078 14.5171 32.9907 14.3982 32.8773C14.2702 32.7508 14.169 32.5998 14.1006 32.4333C14.0322 32.2668 13.998 32.0883 14.0001 31.9083V25.0879C14.1022 24.5606 14.3151 24.061 14.6245 23.6221C14.934 23.1831 15.333 22.8148 15.7953 22.5415L15.5813 33.1665Z" fill="#003366"/>
<path fill-rule="evenodd" clip-rule="evenodd" d="M24.5957 21.4971H28.3289C28.5467 21.4971 33.6057 21.4971 34 25.5908V35.6074C33.9824 36.0012 33.8108 36.3724 33.522 36.6408C33.2332 36.9092 32.8505 37.0533 32.4564 37.0421C32.0623 37.0533 31.6796 36.9092 31.3909 36.6408C31.1021 36.3724 30.9304 36.0012 30.9128 35.6074V24.6594H30.1955V37.6543H18.6729V33.6694H24.2727C24.7877 33.6837 25.2875 33.4947 25.6642 33.1433C26.041 32.7919 26.2642 32.3063 26.2857 31.7916C26.2586 31.2788 26.0336 30.7966 25.6582 30.4464C25.2827 30.0961 24.7861 29.9052 24.2727 29.9137H22.9093L20.4643 21.4971H24.5957Z" fill="#003366"/>
<path fill-rule="evenodd" clip-rule="evenodd" d="M16.1787 33.2009L16.4266 22.253C17.5222 21.9047 18.6584 21.7002 19.8067 21.6445L22.3193 30.5118C22.8226 31.5522 23.217 32.8779 23.0029 33.1671C22.9653 33.2009 22.9653 33.2009 22.894 33.2009H16.1787Z" fill="#FF0000"/>
<path fill-rule="evenodd" clip-rule="evenodd" d="M23.0928 30.6873H24.242C24.5892 30.6751 24.9272 30.8004 25.1825 31.036C25.4378 31.2716 25.5897 31.5985 25.6054 31.9455C25.5888 32.2919 25.4364 32.6178 25.1812 32.8526C24.926 33.0874 24.5886 33.2122 24.242 33.1999H23.6336C23.8139 32.5201 23.382 31.3221 23.0928 30.6873Z" fill="#727270"/>
<path fill-rule="evenodd" clip-rule="evenodd" d="M24.5952 20.5285H24.2722C23.0282 20.4848 21.8495 19.9615 20.9827 19.0682C20.116 18.1749 19.6286 16.9808 19.6226 15.7361C19.6275 15.1093 19.7558 14.4895 20.0002 13.9122C20.2447 13.3349 20.6005 12.8115 21.0472 12.3717C21.494 11.9319 22.023 11.5844 22.604 11.3491C23.1851 11.1138 23.8068 10.9952 24.4337 11.0001C25.0586 10.9957 25.6783 11.1149 26.257 11.3508C26.8357 11.5868 27.362 11.9349 27.8057 12.3751C28.2494 12.8152 28.6016 13.3388 28.8421 13.9156C29.0826 14.4925 29.2067 15.1112 29.2072 15.7361C29.2016 16.9746 28.7194 18.1633 27.8606 19.0556C27.0018 19.948 25.8325 20.4754 24.5952 20.5285Z" fill="#003366"/>
</svg>
